{"photos":{"page":1,"pages":25,"perpage":40,"total":1000,"photo":[{"id":"51705503552","owner":"49781951@N00","secret":"f9ae5ee25a","server":"65535","farm":66,"title":"Liondale Bleach, Dye & Print Works","ispublic":1,"isfriend":0,"isfamily":0,"url_s":"https:\/\/live.staticflickr.com\/65535\/51705503552_f9ae5ee25a_m.jpg","height_s":192,"width_s":240},{"id":"51705503832","owner":"12639178@N07","secret":"6a10d6527b","server":"65535","farm":66,"title":"Man sieht nur Ohren ...","ispublic":1,"isfriend":0,"isfamily":0,"url_s":"https:\/\/live.staticflickr.com\/65535\/51705503832_6a10d6527b_m.jpg","height_s":166,"width_s":240},{"id":"51705504317","owner":"60828468@N00","secret":"0f1538d8ae","server":"65535","farm":66,"title":"KIMG1367","ispublic":1,"isfriend":0,"isfamily":0,"url_s":"https:\/\/live.staticflickr.com\/65535\/51705504317_0f1538d8ae_m.jpg","height_s":240,"width_s":135},{"id":"51705504632","owner":"47676341@N00","secret":"857685a981","server":"65535","farm":66,"title":"Amazing....","ispublic":1,"isfriend":0,"isfamily":0,"url_s":"https:\/\/live.staticflickr.com\/65535\/51705504632_857685a981_m.jpg","height_s":180,"width_s":240},{"id":"51705505232","owner":"23467217@N08","secret":"8123e4ae81","server":"65535","farm":66,"title":"Punta Tombo _MG_1877 2021_10_23-Edit","ispublic":1,"isfriend":0,"isfamily":0,"url_s":"https:\/\/live.staticflickr.com\/65535\/51705505232_8123e4ae81_m.jpg","height_s":160,"width_s":240},{"id":"51705506352","owner":"194167750@N08","secret":"87ae950a20","server":"65535","farm":66,"title":"IMG_20211119_111151","ispublic":1,"isfriend":0,"isfamily":0,"url_s":"https:\/\/live.staticflickr.com\/65535\/51705506352_87ae950a20_m.jpg","height_s":180,"width_s":240},{"id":"51705506467","owner":"7691220@N08","secret":"56b72c5bbf","server":"65535","farm":66,"title":"Karl Mannheim","ispublic":1,"isfriend":0,"isfamily":0,"url_s":"https:\/\/live.staticflickr.com\/65535\/51705506467_56b72c5bbf_m.jpg","height_s":240,"width_s":179},{"id":"51705507337","owner":"119328414@N07","secret":"ca09fd1aee","server":"65535","farm":66,"title":"2021-11-26_09-34-16","ispublic":1,"isfriend":0,"isfamily":0,"url_s":"https:\/\/live.staticflickr.com\/65535\/51705507337_ca09fd1aee_m.jpg","height_s":180,"width_s":240},{"id":"51705507467","owner":"143864996@N04","secret":"9c925a44e8","server":"65535","farm":66,"title":"2021-11-24-untitled shoot-8446.jpg","ispublic":1,"isfriend":0,"isfamily":0,"url_s":"https:\/\/live.staticflickr.com\/65535\/51705507467_9c925a44e8_m.jpg","height_s":160,"width_s":240},{"id":"51705507837","owner":"185818816@N02","secret":"4c1a0601c5","server":"65535","farm":66,"title":"Cocina integral con hierro y madera de teca","ispublic":1,"isfriend":0,"isfamily":0,"url_s":"https:\/\/live.staticflickr.com\/65535\/51705507837_4c1a0601c5_m.jpg","height_s":111,"width_s":240},{"id":"51706295766","owner":"187778847@N07","secret":"13ddcb638a","server":"65535","farm":66,"title":"2021-11-26_05-32-23","ispublic":1,"isfriend":0,"isfamily":0,"url_s":"https:\/\/live.staticflickr.com\/65535\/51706295766_13ddcb638a_m.jpg","height_s":180,"width_s":240},{"id":"51706297341","owner":"189787886@N04","secret":"0cd392206d","server":"65535","farm":66,"title":"CA-KER-77","ispublic":1,"isfriend":0,"isfamily":0,"url_s":"https:\/\/live.staticflickr.com\/65535\/51706297341_0cd392206d_m.jpg","height_s":180,"width_s":240},{"id":"51706297771","owner":"40081731@N05","secret":"fab624a5d5","server":"65535","farm":66,"title":"Jasmine","ispublic":1,"isfriend":0,"isfamily":0,"url_s":"https:\/\/live.staticflickr.com\/65535\/51706297771_fab624a5d5_m.jpg","height_s":180,"width_s":240},{"id":"51706297941","owner":"167369358@N03","secret":"e65c5691ab","server":"65535","farm":66,"title":"00205-pyreneduffau-otles2alpes-2021-11-26 REUNION STATION.jpg","ispublic":1,"isfriend":0,"isfamily":0,"url_s":"https:\/\/live.staticflickr.com\/65535\/51706297941_e65c5691ab_m.jpg","height_s":240,"width_s":160},{"id":"51706297971","owner":"190255935@N08","secret":"a6c85afa4c","server":"65535","farm":66,"title":"Automatic Dispenser For Toothpaste","ispublic":1,"isfriend":0,"isfamily":0,"url_s":"https:\/\/live.staticflickr.com\/65535\/51706297971_a6c85afa4c_m.jpg","height_s":135,"width_s":240},{"id":"51706299071","owner":"190622906@N05","secret":"cd3bc7ea03","server":"65535","farm":66,"title":"original OEM Smart ForTwo 453 Luggage compartment cover","ispublic":1,"isfriend":0,"isfamily":0,"url_s":"https:\/\/live.staticflickr.com\/65535\/51706299071_cd3bc7ea03_m.jpg","height_s":160,"width_s":240},{"id":"51706299601","owner":"50638285@N00","secret":"e9dcc81392","server":"65535","farm":66,"title":"Colour negatives 1992-10","ispublic":1,"isfriend":0,"isfamily":0,"url_s":"https:\/\/live.staticflickr.com\/65535\/51706299601_e9dcc81392_m.jpg","height_s":154,"width_s":240},{"id":"51706300091","owner":"151639852@N07","secret":"0cda671f29","server":"65535","farm":66,"title":"2021-10-31_13-56-50_ILCE-6500_DSC18524_Kiri_DxO","ispublic":1,"isfriend":0,"isfamily":0,"url_s":"https:\/\/live.staticflickr.com\/65535\/51706300091_0cda671f29_m.jpg","height_s":240,"width_s":169},{"id":"51706300306","owner":"194165883@N03","secret":"37575df681","server":"65535","farm":66,"title":"elina","ispublic":1,"isfriend":0,"isfamily":0,"url_s":"https:\/\/live.staticflickr.com\/65535\/51706300306_37575df681_m.jpg","height_s":240,"width_s":180},{"id":"51706573568","owner":"193739140@N05","secret":"4c224f35c3","server":"65535","farm":66,"title":"","ispublic":1,"isfriend":0,"isfamily":0,"url_s":"https:\/\/live.staticflickr.com\/65535\/51706573568_4c224f35c3_m.jpg","height_s":240,"width_s":111},{"id":"51706574988","owner":"68153831@N00","secret":"80c739b96f","server":"65535","farm":66,"title":"WP_002962","ispublic":1,"isfriend":0,"isfamily":0,"url_s":"https:\/\/live.staticflickr.com\/65535\/51706574988_80c739b96f_m.jpg","height_s":180,"width_s":240},{"id":"51706575973","owner":"194479130@N07","secret":"e82eb539e4","server":"65535","farm":66,"title":"Dalila","ispublic":1,"isfriend":0,"isfamily":0,"url_s":"https:\/\/live.staticflickr.com\/65535\/51706575973_e82eb539e4_m.jpg","height_s":180,"width_s":240},{"id":"51706576748","owner":"194502922@N06","secret":"3f6ff51e7c","server":"65535","farm":66,"title":"Jill\u2019s pics","ispublic":1,"isfriend":0,"isfamily":0,"url_s":"https:\/\/live.staticflickr.com\/65535\/51706576748_3f6ff51e7c_m.jpg","height_s":240,"width_s":180},{"id":"51706577168","owner":"135718488@N03","secret":"83611602bc","server":"65535","farm":66,"title":"IMG_6098","ispublic":1,"isfriend":0,"isfamily":0,"url_s":"https:\/\/live.staticflickr.com\/65535\/51706577168_83611602bc_m.jpg","height_s":57,"width_s":240},{"id":"51706577418","owner":"96037254@N00","secret":"14a88d804e","server":"65535","farm":66,"title":"Purcell_211125_1083","ispublic":1,"isfriend":0,"isfamily":0,"url_s":"https:\/\/live.staticflickr.com\/65535\/51706577418_14a88d804e_m.jpg","height_s":160,"width_s":240},{"id":"51706577423","owner":"35962850@N05","secret":"909b9501c9","server":"65535","farm":66,"title":"Infrared","ispublic":1,"isfriend":0,"isfamily":0,"url_s":"https:\/\/live.staticflickr.com\/65535\/51706577423_909b9501c9_m.jpg","height_s":240,"width_s":162},{"id":"51706577523","owner":"150539873@N08","secret":"f789522cef","server":"65535","farm":66,"title":"2021-11-08_01-55-39","ispublic":1,"isfriend":0,"isfamily":0,"url_s":"https:\/\/live.staticflickr.com\/65535\/51706577523_f789522cef_m.jpg","height_s":240,"width_s":121},{"id":"51706968354","owner":"59931634@N00","secret":"cbd417ea40","server":"65535","farm":66,"title":"IMG_4414.jpg","ispublic":1,"isfriend":0,"isfamily":0,"url_s":"https:\/\/live.staticflickr.com\/65535\/51706968354_cbd417ea40_m.jpg","height_s":240,"width_s":180},{"id":"51706968624","owner":"142716558@N07","secret":"567d65be2e","server":"65535","farm":66,"title":"","ispublic":1,"isfriend":0,"isfamily":0,"url_s":"https:\/\/live.staticflickr.com\/65535\/51706968624_567d65be2e_m.jpg","height_s":180,"width_s":240},{"id":"51706969104","owner":"194452365@N05","secret":"8e26cba6d7","server":"65535","farm":66,"title":"Bird of paradise","ispublic":1,"isfriend":0,"isfamily":0,"url_s":"https:\/\/live.staticflickr.com\/65535\/51706969104_8e26cba6d7_m.jpg","height_s":240,"width_s":192},{"id":"51706969289","owner":"88159932@N00","secret":"57d8127a6b","server":"65535","farm":66,"title":"Indy portrait","ispublic":1,"isfriend":0,"isfamily":0,"url_s":"https:\/\/live.staticflickr.com\/65535\/51706969289_57d8127a6b_m.jpg","height_s":240,"width_s":160},{"id":"51706970119","owner":"58347531@N00","secret":"6437c29f88","server":"65535","farm":66,"title":"LIC Dutch Kills","ispublic":1,"isfriend":0,"isfamily":0,"url_s":"https:\/\/live.staticflickr.com\/65535\/51706970119_6437c29f88_m.jpg","height_s":150,"width_s":240},{"id":"51706970249","owner":"151077639@N03","secret":"190429cc01","server":"65535","farm":66,"title":"P1009890_Nik_DxO","ispublic":1,"isfriend":0,"isfamily":0,"url_s":"https:\/\/live.staticflickr.com\/65535\/51706970249_190429cc01_m.jpg","height_s":180,"width_s":240},{"id":"51706970939","owner":"34325628@N05","secret":"36beeb5e2b","server":"65535","farm":66,"title":"IMG_3464.jpg","ispublic":1,"isfriend":0,"isfamily":0,"url_s":"https:\/\/live.staticflickr.com\/65535\/51706970939_36beeb5e2b_m.jpg","height_s":240,"width_s":180},{"id":"51706971094","owner":"194353758@N06","secret":"2097d9e757","server":"65535","farm":66,"title":"The forbidden art","ispublic":1,"isfriend":0,"isfamily":0,"url_s":"https:\/\/live.staticflickr.com\/65535\/51706971094_2097d9e757_m.jpg","height_s":240,"width_s":180},{"id":"51707183400","owner":"65884127@N08","secret":"609f38ffe2","server":"65535","farm":66,"title":"For the road trip","ispublic":1,"isfriend":0,"isfamily":0,"url_s":"https:\/\/live.staticflickr.com\/65535\/51707183400_609f38ffe2_m.jpg","height_s":240,"width_s":163},{"id":"51707183780","owner":"193476613@N02","secret":"900578fc1c","server":"65535","farm":66,"title":"\u062a\u062d\u0645\u064a\u0644 \u062a\u0637\u0628\u064a\u0642 \u0627\u0644\u062f\u062d\u064a\u062d \u062a\u064a\u0641\u064a DAHIH TV \u0644\u0645\u0634\u0627\u0647\u062f\u0629 \u0627\u0644\u0642\u0646\u0648\u0627\u062a \u0627\u0644\u0631\u064a\u0627\u0636\u064a\u0629 \u0645\u062c\u0627\u0646\u0627 \u0644\u0644\u0627\u0646\u062f\u0631\u0648\u064a\u062f","ispublic":1,"isfriend":0,"isfamily":0,"url_s":"https:\/\/live.staticflickr.com\/65535\/51707183780_900578fc1c_m.jpg","height_s":135,"width_s":240},{"id":"51707185390","owner":"13875847@N00","secret":"c154dd700a","server":"65535","farm":66,"title":"Good Morning North Harlem","ispublic":1,"isfriend":0,"isfamily":0,"url_s":"https:\/\/live.staticflickr.com\/65535\/51707185390_c154dd700a_m.jpg","height_s":180,"width_s":240},{"id":"51707185840","owner":"184998911@N03","secret":"895870d49b","server":"65535","farm":66,"title":"Bocha ... Rescued a few years ago , but still \u00e0 loner....","ispublic":1,"isfriend":0,"isfamily":0,"url_s":"https:\/\/live.staticflickr.com\/65535\/51707185840_895870d49b_m.jpg","height_s":240,"width_s":204},{"id":"51707185960","owner":"187723931@N05","secret":"0a4e87b9ea","server":"65535","farm":66,"title":"2021-11-26_05-33-34","ispublic":1,"isfriend":0,"isfamily":0,"url_s":"https:\/\/live.staticflickr.com\/65535\/51707185960_0a4e87b9ea_m.jpg","height_s":227,"width_s":240}]},"stat":"ok"}